1ano/1semestre/IntroSistemasDigitais/Quartus/Proj_EqCmp/simulation/qsim/EqCmpDemo.msim.vcd
$comment
	File created using the following command:
		vcd file EqCmpDemo.msim.vcd -direction
$end
$date
	Thu Nov 03 16:55:19 2022
$end
$version
	ModelSim Version 2020.1
$end
$timescale
	1ps
$end

$scope module EqCmp4_vlg_vec_tst $end
$var reg 4 ! input0 [3:0] $end
$var reg 4 " input1 [3:0] $end
$var wire 1 # cmpOut $end

$scope module i1 $end
$var wire 1 $ gnd $end
$var wire 1 % vcc $end
$var wire 1 & unknown $end
$var tri1 1 ' devclrn $end
$var tri1 1 ( devpor $end
$var tri1 1 ) devoe $end
$var wire 1 * cmpOut~output_o $end
$var wire 1 + input0[3]~input_o $end
$var wire 1 , input0[2]~input_o $end
$var wire 1 - input1[2]~input_o $end
$var wire 1 . input1[3]~input_o $end
$var wire 1 / inst4~0_combout $end
$var wire 1 0 input0[1]~input_o $end
$var wire 1 1 input0[0]~input_o $end
$var wire 1 2 input1[0]~input_o $end
$var wire 1 3 input1[1]~input_o $end
$var wire 1 4 inst4~1_combout $end
$var wire 1 5 inst4~combout $end
$upscope $end
$upscope $end
$enddefinitions $end
#0
$dumpvars
b1110 !
b1000 "
0#
0$
1%
x&
1'
1(
1)
0*
1+
1,
0-
1.
0/
10
01
02
03
04
05
$end
#20000
b1100 !
b1010 "
b1011 "
12
13
00
#60000
b100 !
b101 !
b111 !
b1010 "
02
11
10
0+
#80000
b10 "
b110 "
b100 "
b110 !
b101 "
01
12
03
1-
0.
1/
#100000
b10 !
b1010 !
b1 "
0-
0,
1+
0/
#120000
b1001 "
b1011 "
b1011 !
b1010 "
b1110 "
11
02
13
1-
1.
#140000
b1111 !
b111 !
b110 "
b100 "
b110 !
03
0.
01
1,
0+
1/
#160000
b101 "
b10 !
b1010 !
b111 "
0,
1+
12
13
0/
#180000
b1000 !
b1001 !
b110 "
b1 !
b100 "
02
03
11
00
0+
#200000
b1100 "
b11 !
b1011 !
10
1+
1.
#220000
b1101 "
b101 "
b11 !
0+
12
0.
#240000
b111 !
b111 "
b110 "
b1110 "
02
13
1.
1,
#260000
b110 !
b1110 !
b1010 !
b1100 "
b1101 "
b101 "
12
03
0.
01
0,
1+
#280000
b1000 !
b1100 !
b100 "
b1100 "
02
1.
00
1,
14
1/
15
1*
1#
#300000
b1000 "
b1010 "
b1000 !
b1011 "
b11 "
0,
12
13
0-
0.
0/
04
05
0*
0#
#320000
b1010 !
b111 "
b101 "
b100 "
b1100 "
02
03
1-
1.
10
#340000
b10 !
b1000 "
b1001 "
b1 "
12
0-
0.
0+
1/
#360000
b1001 "
1.
0/
#380000
b11 !
b1 !
b1011 "
b1111 "
b1110 "
02
13
1-
11
00
#400000
b1001 !
b110 "
b1011 !
b100 "
b0 "
03
0-
0.
10
1+
#420000
b1111 !
b1 "
b1001 "
b1101 !
b1011 "
b1111 "
12
13
1-
1.
00
1,
1/
#440000
b1100 !
b1110 "
b110 "
b1110 !
b100 "
02
03
0.
01
10
0/
#460000
b110 !
b10 !
b0 "
b11 !
b10 "
13
0-
11
0,
0+
1/
#480000
b111 !
b110 "
b110 !
b100 "
03
1-
01
1,
#500000
b1100 "
b1110 !
b1010 !
b1000 "
0,
1+
0-
1.
#520000
b1001 "
b1011 !
b1 "
b11 !
b111 !
11
1,
0+
12
0.
0/
#540000
b110 !
01
#560000
b10 !
0,
1/
#580000
b0 !
b101 "
b1000 !
1-
00
1+
0/
#600000
b111 "
b110 "
b1100 !
b1110 !
b10 "
b110 !
10
1,
0+
02
13
0-
14
#620000
b1010 "
b111 !
b1011 "
b11 !
b1 !
b1111 "
11
00
0,
12
1-
1.
04
#640000
b0 !
b100 !
b110 !
b1011 "
0-
01
10
1,
#660000
b1001 "
b1000 "
b10 !
b0 !
00
0,
02
03
14
#680000
b1010 "
b100 !
b110 !
10
1,
13
#700000
b10 "
b11 "
b1 "
b10 !
0,
12
03
0.
1/
04
#720000
b11 !
b101 "
b1 !
b100 "
b110 "
b101 !
02
13
1-
11
00
1,
#740000
b1101 !
b1100 !
b1110 !
b111 "
12
01
10
1+
0/
#760000
b11 "
b1 "
b1010 !
b1011 !
b0 "
11
0,
02
03
0-
#780000
b1001 !
b100 "
1-
00
#800000
b1100 "
b1110 "
b1101 !
b1100 !
b1110 !
01
10
1,
13
1.
14
1/
15
1*
1#
#820000
b110 !
b110 "
b100 "
b10 !
03
0.
0,
0+
04
0/
05
0*
0#
#840000
b0 "
b0 !
b1000 !
b1000 "
b1010 "
00
1+
13
0-
1.
1/
#860000
b1001 !
b1101 !
b1110 "
b1111 !
b111 !
b110 "
b100 "
03
1-
0.
11
10
1,
0+
#880000
b110 !
b10 !
b0 !
b1000 !
b1100 "
1.
01
00
0,
1+
0/
14
#900000
b1000 "
b1100 !
b1110 !
b110 !
b0 "
10
1,
0+
0-
0.
04
#920000
b111 !
b11 !
b1 !
b1001 !
b1000 "
1.
11
00
0,
1+
1/
#940000
b1001 "
b1011 "
b1000 !
b1010 !
01
10
12
13
#960000
b1010 "
b1000 "
02
03
#980000
b1110 !
b0 "
b1100 !
b1 "
b11 "
12
13
0.
00
1,
0/
