1ano/2semestre/Lab_SistemasDigitais/Pratica/Projetos/aula1/parte2/simulation/qsim/VHDLDemo.msim.vcd
$comment
	File created using the following command:
		vcd file VHDLDemo.msim.vcd -direction
$end
$date
	Tue Feb 28 10:59:28 2023
$end
$version
	ModelSim Version 2020.1
$end
$timescale
	1ps
$end

$scope module and2gate_vhd_vec_tst $end
$var wire 1 ! inPort0 $end
$var wire 1 " inport1 $end
$var wire 1 # outPort $end

$scope module i1 $end
$var wire 1 $ gnd $end
$var wire 1 % vcc $end
$var wire 1 & unknown $end
$var wire 1 ' devoe $end
$var wire 1 ( devclrn $end
$var wire 1 ) devpor $end
$var wire 1 * ww_devoe $end
$var wire 1 + ww_devclrn $end
$var wire 1 , ww_devpor $end
$var wire 1 - ww_inPort0 $end
$var wire 1 . ww_inport1 $end
$var wire 1 / ww_outPort $end
$var wire 1 0 \outPort~output_o\ $end
$var wire 1 1 \inPort0~input_o\ $end
$var wire 1 2 \inport1~input_o\ $end
$var wire 1 3 \outPort~0_combout\ $end
$upscope $end
$upscope $end
$enddefinitions $end
#0
$dumpvars
1!
1"
1#
0$
1%
x&
1'
1(
1)
1*
1+
1,
1-
1.
1/
10
11
12
13
$end
#10000
0"
0.
02
03
00
0/
0#
#20000
1"
1.
12
13
10
1/
1#
#40000
0"
0.
02
03
00
0/
0#
#90000
1"
1.
12
13
10
1/
1#
#100000
0"
0.
02
03
00
0/
0#
#110000
1"
1.
12
13
10
1/
1#
#140000
0"
0.
02
03
00
0/
0#
#150000
1"
1.
12
13
10
1/
1#
#170000
0"
0.
02
03
00
0/
0#
#180000
1"
1.
12
13
10
1/
1#
#190000
0"
0!
0.
0-
01
02
03
00
0/
0#
#200000
1"
1!
1.
1-
11
12
13
10
1/
1#
#210000
0"
0!
0.
0-
01
02
03
00
0/
0#
#250000
1"
1!
1.
1-
11
12
13
10
1/
1#
#270000
0"
0!
0.
0-
01
02
03
00
0/
0#
#290000
1"
1!
1.
1-
11
12
13
10
1/
1#
#310000
0"
0!
0.
0-
01
02
03
00
0/
0#
#320000
1"
1!
1.
1-
11
12
13
10
1/
1#
#330000
0"
0.
02
03
00
0/
0#
#350000
0!
0-
01
#370000
1!
1"
1-
1.
12
11
13
10
1/
1#
#380000
0!
0"
0-
0.
02
01
03
00
0/
0#
#400000
1!
1"
1-
1.
12
11
13
10
1/
1#
#410000
0!
0"
0-
0.
02
01
03
00
0/
0#
#430000
1!
1"
1-
1.
12
11
13
10
1/
1#
#450000
0"
0.
02
03
00
0/
0#
#470000
1"
1.
12
13
10
1/
1#
#490000
0"
0.
02
03
00
0/
0#
#520000
1"
1.
12
13
10
1/
1#
#530000
0"
0.
02
03
00
0/
0#
#540000
1"
1.
12
13
10
1/
1#
#550000
0"
0.
02
03
00
0/
0#
#560000
1"
1.
12
13
10
1/
1#
#600000
0"
0!
0.
0-
01
02
03
00
0/
0#
#620000
1"
1!
1.
1-
11
12
13
10
1/
1#
#670000
0"
0.
02
03
00
0/
0#
#690000
1"
1.
12
13
10
1/
1#
#700000
0"
0.
02
03
00
0/
0#
#720000
1"
1.
12
13
10
1/
1#
#730000
0"
0.
02
03
00
0/
0#
#740000
1"
1.
12
13
10
1/
1#
#800000
0"
0!
0.
0-
01
02
03
00
0/
0#
#850000
1"
1!
1.
1-
11
12
13
10
1/
1#
#860000
0"
0!
0.
0-
01
02
03
00
0/
0#
#870000
1"
1!
1.
1-
11
12
13
10
1/
1#
#900000
0"
0!
0.
0-
01
02
03
00
0/
0#
#930000
1"
1!
1.
1-
11
12
13
10
1/
1#
#940000
0"
0!
0.
0-
01
02
03
00
0/
0#
