1ano/2semestre/Lab_SistemasDigitais/Pratica/Projetos/aula03/parte1/simulation/qsim/AdderDemo.msim.vcd
$comment
	File created using the following command:
		vcd file AdderDemo.msim.vcd -direction
$end
$date
	Tue Mar 14 10:29:46 2023
$end
$version
	ModelSim Version 2020.1
$end
$timescale
	1ps
$end

$scope module adder4_vhd_vec_tst $end
$var wire 1 ! a [3] $end
$var wire 1 " a [2] $end
$var wire 1 # a [1] $end
$var wire 1 $ a [0] $end
$var wire 1 % b [3] $end
$var wire 1 & b [2] $end
$var wire 1 ' b [1] $end
$var wire 1 ( b [0] $end
$var wire 1 ) cin $end
$var wire 1 * cout $end
$var wire 1 + s [3] $end
$var wire 1 , s [2] $end
$var wire 1 - s [1] $end
$var wire 1 . s [0] $end

$scope module i1 $end
$var wire 1 / gnd $end
$var wire 1 0 vcc $end
$var wire 1 1 unknown $end
$var wire 1 2 devoe $end
$var wire 1 3 devclrn $end
$var wire 1 4 devpor $end
$var wire 1 5 ww_devoe $end
$var wire 1 6 ww_devclrn $end
$var wire 1 7 ww_devpor $end
$var wire 1 8 ww_a [3] $end
$var wire 1 9 ww_a [2] $end
$var wire 1 : ww_a [1] $end
$var wire 1 ; ww_a [0] $end
$var wire 1 < ww_b [3] $end
$var wire 1 = ww_b [2] $end
$var wire 1 > ww_b [1] $end
$var wire 1 ? ww_b [0] $end
$var wire 1 @ ww_cin $end
$var wire 1 A ww_s [3] $end
$var wire 1 B ww_s [2] $end
$var wire 1 C ww_s [1] $end
$var wire 1 D ww_s [0] $end
$var wire 1 E ww_cout $end
$var wire 1 F \s[0]~output_o\ $end
$var wire 1 G \s[1]~output_o\ $end
$var wire 1 H \s[2]~output_o\ $end
$var wire 1 I \s[3]~output_o\ $end
$var wire 1 J \cout~output_o\ $end
$var wire 1 K \a[0]~input_o\ $end
$var wire 1 L \b[0]~input_o\ $end
$var wire 1 M \cin~input_o\ $end
$var wire 1 N \bit0|s~0_combout\ $end
$var wire 1 O \a[1]~input_o\ $end
$var wire 1 P \b[1]~input_o\ $end
$var wire 1 Q \bit1|s~0_combout\ $end
$var wire 1 R \a[2]~input_o\ $end
$var wire 1 S \b[2]~input_o\ $end
$var wire 1 T \bit2|s~0_combout\ $end
$var wire 1 U \a[3]~input_o\ $end
$var wire 1 V \b[3]~input_o\ $end
$var wire 1 W \bit3|s~0_combout\ $end
$upscope $end
$upscope $end
$enddefinitions $end
#0
$dumpvars
0)
0*
0/
10
x1
12
13
14
15
16
17
0@
0E
1F
0G
0H
0I
0J
1K
0L
0M
1N
1O
1P
0Q
1R
1S
0T
1U
1V
0W
1!
1"
1#
1$
1%
1&
1'
0(
18
19
1:
1;
1<
1=
1>
0?
0A
0B
0C
1D
0+
0,
0-
1.
$end
#50000
0%
0<
0V
1W
1I
1A
1+
#70000
0"
0#
0:
09
0R
0O
1Q
1T
1H
1G
1B
1C
1-
1,
#90000
1)
1@
1M
0N
0Q
0T
0W
0I
0H
0G
0F
0A
0B
0C
0D
0.
0-
0,
0+
#100000
0'
0>
0P
1Q
1G
1C
1-
#140000
1#
0!
0$
0;
1:
08
0U
1O
0K
1N
0Q
1W
1I
0G
1F
1A
0C
1D
1.
0-
1+
#200000
1'
1%
1>
1<
1V
1P
1Q
0W
0I
1G
0A
1C
1-
0+
#210000
0)
0@
0M
0N
0Q
1T
1W
1I
1H
0G
0F
1A
1B
0C
0D
0.
0-
1,
1+
#250000
1(
1?
1L
1N
1F
1D
1.
#270000
1)
1@
1M
0N
1Q
0T
0W
0I
0H
1G
0F
0A
0B
1C
0D
0.
1-
0,
0+
#280000
0#
1!
1"
0:
19
18
1U
1R
0O
0Q
1T
1W
1I
1H
0G
1A
1B
0C
0-
1,
1+
#300000
0(
0'
0%
0?
0>
0<
0V
0P
0L
1N
1Q
0W
0I
1G
1F
0A
1C
1D
1.
1-
0+
#330000
0)
0@
0M
0N
0Q
0T
1W
1I
0H
0G
0F
1A
0B
0C
0D
0.
0-
0,
1+
#350000
1'
1%
1#
0"
0&
1>
0=
1<
1:
09
0R
1O
1V
0S
1P
0W
0I
0A
0+
#360000
1)
1@
1M
1N
1Q
1T
1W
1I
1H
1G
1F
1A
1B
1C
1D
1.
1-
1,
1+
#400000
1(
1?
1L
0N
0F
0D
0.
#420000
0#
1$
1;
0:
0O
1K
1N
0Q
0G
1F
0C
1D
1.
0-
#450000
0(
0)
0'
0%
0?
0>
0<
0@
0M
0V
0P
0L
0T
0H
0B
0,
#490000
1"
19
1R
1T
1H
1B
1,
#500000
1%
1<
1V
0W
0I
0A
0+
#510000
1)
1@
1M
0N
1Q
0T
1W
1I
0H
1G
0F
1A
0B
1C
0D
0.
1-
0,
1+
#540000
0)
0@
0M
1N
0Q
1T
0W
0I
1H
0G
1F
0A
1B
0C
1D
1.
0-
1,
0+
#550000
0%
1'
1&
1>
1=
0<
0V
1S
1P
1Q
0T
1W
1I
0H
1G
1A
0B
1C
1-
0,
1+
#560000
1#
0$
0!
0;
1:
08
0U
1O
0K
0N
0Q
0W
0I
0G
0F
0A
0C
0D
0.
0-
0+
#600000
1(
1?
1L
1N
1F
1D
1.
#630000
0#
1$
1!
1;
0:
18
1U
0O
1K
0N
1Q
1W
1I
1G
0F
1A
1C
0D
0.
1-
1+
#650000
0'
0&
0>
0=
0S
0P
0Q
1T
1H
0G
1B
0C
0-
1,
#660000
1)
1@
1M
1N
1Q
0T
0W
0I
0H
1G
1F
0A
0B
1C
1D
1.
1-
0,
0+
#700000
1'
1&
1#
0$
0(
1%
0?
1>
1=
1<
0;
1:
1O
0K
1V
1S
1P
0L
1T
1W
1I
1H
1A
1B
1,
1+
#750000
0&
1(
1?
0=
0S
1L
0N
0T
0H
0F
0B
0D
0.
0,
#770000
0!
08
0U
0W
0I
0A
0+
#800000
0(
0'
0%
0?
0>
0<
0V
0P
0L
1N
0Q
1W
1I
0G
1F
1A
0C
1D
1.
0-
1+
#810000
0)
0@
0M
0N
1Q
1T
0W
0I
1H
1G
0F
0A
1B
1C
0D
0.
1-
1,
0+
#840000
1)
1!
0#
1@
0:
18
1U
0O
1M
1N
0T
0H
1F
0B
1D
1.
0,
#850000
1&
1=
1S
1T
1H
1B
1,
#900000
0&
1'
1>
0=
0S
1P
0Q
0T
0H
0G
0B
0C
0-
0,
#910000
0!
1$
0"
1;
09
08
0U
0R
1K
0N
1T
1W
1I
1H
0F
1A
1B
0D
0.
1,
1+
#930000
0)
0@
0M
1N
1Q
0T
0W
0I
0H
1G
1F
0A
0B
1C
1D
1.
1-
0,
0+
#950000
1&
1=
1S
1T
1H
1B
1,
#980000
1!
0$
1"
1#
0;
1:
19
18
1U
1R
1O
0K
0N
0Q
0T
1W
1I
0H
0G
0F
1A
0B
0C
0D
0.
0-
0,
1+
#990000
1)
1@
1M
1N
1Q
1T
0W
0I
1H
1G
1F
0A
1B
1C
1D
1.
1-
1,
0+
