1ano/2semestre/Lab_SistemasDigitais/Pratica/Projeto/simulation/qsim/QuartusDemo.msim.vcd
$comment
	File created using the following command:
		vcd file QuartusDemo.msim.vcd -direction
$end
$date
	Tue Feb 28 10:13:55 2023
$end
$version
	ModelSim Version 2020.1
$end
$timescale
	1ps
$end

$scope module GateDemo_vlg_vec_tst $end
$var reg 2 ! SW [1:0] $end
$var wire 1 " LEDR [0] $end

$scope module i1 $end
$var wire 1 # gnd $end
$var wire 1 $ vcc $end
$var wire 1 % unknown $end
$var tri1 1 & devclrn $end
$var tri1 1 ' devpor $end
$var tri1 1 ( devoe $end
$var wire 1 ) LEDR[0]~output_o $end
$var wire 1 * SW[1]~input_o $end
$var wire 1 + SW[0]~input_o $end
$var wire 1 , inst~combout $end
$upscope $end
$upscope $end
$enddefinitions $end
#0
$dumpvars
b11 !
1"
0#
1$
x%
1&
1'
1(
1)
1*
1+
1,
$end
#10000
b10 !
0+
0,
0)
0"
#20000
b0 !
0*
#30000
b1 !
1+
#40000
b11 !
b10 !
0+
1*
#50000
b0 !
b1 !
1+
0*
#70000
b11 !
1*
1,
1)
1"
#90000
b10 !
0+
0,
0)
0"
#120000
b0 !
0*
#130000
b1 !
1+
#140000
b11 !
1*
1,
1)
1"
#150000
b10 !
b0 !
0+
0*
0,
0)
0"
#160000
b1 !
1+
#170000
b0 !
0+
#180000
b1 !
1+
#190000
b11 !
b10 !
0+
1*
#200000
b0 !
b1 !
1+
0*
#210000
b11 !
b10 !
0+
1*
#220000
b0 !
b1 !
1+
0*
#230000
b0 !
0+
#240000
b1 !
1+
#250000
b11 !
b10 !
0+
1*
#270000
b0 !
b1 !
1+
0*
#280000
b11 !
b10 !
0+
1*
#300000
b0 !
b1 !
1+
0*
#310000
b0 !
0+
#320000
b10 !
b11 !
1+
1*
1,
1)
1"
#330000
b1 !
b0 !
0+
0*
0,
0)
0"
#340000
b1 !
1+
#370000
b11 !
b10 !
0+
1*
#380000
b11 !
1+
1,
1)
1"
#390000
b1 !
0*
0,
0)
0"
#410000
b0 !
b10 !
0+
1*
#420000
b11 !
b1 !
1+
0*
#430000
b0 !
0+
#440000
b10 !
1*
#470000
b11 !
1+
1,
1)
1"
#490000
b1 !
b0 !
0+
0*
0,
0)
0"
#500000
b10 !
b11 !
1+
1*
1,
1)
1"
#510000
b1 !
0*
0,
0)
0"
#520000
b0 !
b10 !
0+
1*
#530000
b0 !
0*
#560000
b10 !
1*
#570000
b0 !
0*
#580000
b1 !
b11 !
1+
1*
1,
1)
1"
#590000
b1 !
0*
0,
0)
0"
#610000
b0 !
b10 !
0+
1*
#630000
b0 !
0*
#640000
b1 !
1+
#650000
b0 !
0+
#660000
b10 !
b11 !
1+
1*
1,
1)
1"
#680000
b10 !
0+
0,
0)
0"
#700000
b0 !
0*
#710000
b1 !
1+
#720000
b11 !
1*
1,
1)
1"
#730000
b10 !
0+
0,
0)
0"
#740000
b0 !
b1 !
1+
0*
#750000
b11 !
1*
1,
1)
1"
#760000
b10 !
b0 !
0+
0*
0,
0)
0"
#770000
b1 !
b11 !
1+
1*
1,
1)
1"
#800000
b1 !
0*
0,
0)
0"
#810000
b11 !
1*
1,
1)
1"
#820000
b1 !
0*
0,
0)
0"
#840000
b0 !
0+
#850000
b10 !
1*
#870000
b11 !
b1 !
1+
0*
#880000
b11 !
1*
1,
1)
1"
#890000
b1 !
0*
0,
0)
0"
#900000
b0 !
0+
#920000
b1 !
1+
#930000
b11 !
b10 !
0+
1*
#940000
b0 !
b1 !
1+
0*
#960000
b11 !
b10 !
0+
1*
#970000
b11 !
1+
1,
1)
1"
#980000
b1 !
b0 !
0+
0*
0,
0)
0"
