1ano/1semestre/IntroSistemasDigitais/Quartus/Experiments/simulation/qsim/teste1.msim.vcd
$comment
	File created using the following command:
		vcd file teste1.msim.vcd -direction
$end
$date
	Thu Nov 24 17:11:32 2022
$end
$version
	ModelSim Version 2020.1
$end
$timescale
	1ps
$end

$scope module teste1symbol_vlg_vec_tst $end
$var reg 3 ! S [2:0] $end
$var reg 8 " X [7:0] $end
$var wire 1 # Y $end

$scope module i1 $end
$var wire 1 $ gnd $end
$var wire 1 % vcc $end
$var wire 1 & unknown $end
$var tri1 1 ' devclrn $end
$var tri1 1 ( devpor $end
$var tri1 1 ) devoe $end
$var wire 1 * Y~output_o $end
$var wire 1 + X[5]~input_o $end
$var wire 1 , S[0]~input_o $end
$var wire 1 - X[6]~input_o $end
$var wire 1 . S[1]~input_o $end
$var wire 1 / X[4]~input_o $end
$var wire 1 0 inst|inst1|22~0_combout $end
$var wire 1 1 X[7]~input_o $end
$var wire 1 2 inst|inst1|22~1_combout $end
$var wire 1 3 X[2]~input_o $end
$var wire 1 4 X[1]~input_o $end
$var wire 1 5 X[0]~input_o $end
$var wire 1 6 inst|inst1|22~2_combout $end
$var wire 1 7 X[3]~input_o $end
$var wire 1 8 inst|inst1|22~3_combout $end
$var wire 1 9 S[2]~input_o $end
$var wire 1 : inst|inst1|22~4_combout $end
$upscope $end
$upscope $end
$enddefinitions $end
#0
$dumpvars
b111 !
b1010111 "
0#
0$
1%
x&
1'
1(
1)
0*
0+
1,
1-
1.
1/
10
01
02
13
14
15
16
07
08
19
0:
$end
#50000
b1011111 "
b1011011 "
03
17
18
#60000
b11 !
b1 !
b0 !
0,
0.
09
12
1:
1*
1#
#100000
b11011011 "
b11001011 "
b11001010 "
b11000010 "
b11000110 "
05
13
07
0/
11
06
00
08
02
0:
0*
0#
#150000
b11100110 "
b1100110 "
b1100111 "
b1100011 "
15
03
1+
01
16
18
1:
1*
1#
#200000
b100011 "
0-
#240000
b1 !
1,
12
#250000
b100001 "
b101001 "
b1001 "
b10001001 "
b10001000 "
b11001000 "
05
04
17
0+
1-
11
06
02
08
0:
0*
0#
#300000
b11 !
b11011000 "
b10 !
b11011010 "
b1011010 "
b1011011 "
15
14
1/
01
0,
1.
10
12
#350000
b1011111 "
b1111111 "
b111111 "
b111101 "
04
13
1+
0-
18
00
02
1:
1*
1#
#360000
b110 !
b111 !
1,
19
16
12
10
0:
0*
02
0#
1:
1*
1#
0:
0*
0#
#400000
b110101 "
b10110101 "
b10110001 "
b10010001 "
b10010011 "
14
03
07
0+
11
08
12
1:
1*
1#
#420000
b101 !
b1 !
0.
09
18
00
0:
0*
02
0#
1:
1*
1#
#450000
b10000011 "
b11000011 "
b11100011 "
b11100001 "
04
0/
1+
1-
06
12
08
0:
0*
0#
#480000
b0 !
0,
16
02
18
1:
1*
1#
#500000
b11100000 "
b11100100 "
b11110100 "
b10110100 "
b10110110 "
05
14
13
1/
0-
06
10
08
12
0:
0*
0#
#540000
b100 !
19
1:
1*
1#
#550000
b110110 "
b10110 "
b1010110 "
0+
1-
01
#600000
b101 !
b1010111 "
b1 !
b11010111 "
b11110111 "
b10110111 "
15
1+
0-
11
1,
09
16
00
0:
0*
18
0#
1:
1*
1#
#650000
b10111111 "
b10111011 "
b10101011 "
b10101010 "
b10001010 "
b11001010 "
05
03
17
0/
0+
1-
02
#660000
b11 !
b10 !
0,
1.
06
10
08
12
0:
0*
0#
#700000
b11000010 "
b11000110 "
b11000111 "
b11100111 "
b10100111 "
15
13
07
1+
0-
18
00
02
1:
1*
1#
#750000
b10110111 "
b10111111 "
b10011111 "
b11011111 "
17
1/
0+
1-
10
12
#780000
b110 !
19
#800000
b11011011 "
b11011010 "
b11001010 "
b11000010 "
b11100010 "
05
03
07
0/
1+
08
#840000
b100 !
b0 !
0.
09
00
0:
0*
02
0#
#850000
b11100110 "
b11100111 "
b11110111 "
b11010111 "
15
13
1/
0+
16
10
18
12
1:
1*
1#
#900000
b11010101 "
b1010101 "
b1 !
b10101 "
b11 !
b111 !
b10001 "
b10000 "
b0 "
1,
1.
19
05
04
03
0/
0-
01
02
08
0:
0*
0#
#950000
b1000 "
b101000 "
b101010 "
b1101010 "
b1101110 "
b1101111 "
b1111111 "
15
14
13
17
1/
1+
1-
18
#960000
b110 !
b100 !
0,
0.
12
1:
1*
1#
