1ano/2semestre/Lab_SistemasDigitais/Pratica/Projetos/aula2/parte1/simulation/qsim/Dec2_4EnDemo.msim.vcd
$comment
	File created using the following command:
		vcd file Dec2_4EnDemo.msim.vcd -direction
$end
$date
	Tue Mar 07 10:23:04 2023
$end
$version
	ModelSim Version 2020.1
$end
$timescale
	1ps
$end

$scope module dec2_4en_vhd_vec_tst $end
$var wire 1 ! enable $end
$var wire 1 " inputs [1] $end
$var wire 1 # inputs [0] $end
$var wire 1 $ outputs [3] $end
$var wire 1 % outputs [2] $end
$var wire 1 & outputs [1] $end
$var wire 1 ' outputs [0] $end

$scope module i1 $end
$var wire 1 ( gnd $end
$var wire 1 ) vcc $end
$var wire 1 * unknown $end
$var wire 1 + devoe $end
$var wire 1 , devclrn $end
$var wire 1 - devpor $end
$var wire 1 . ww_devoe $end
$var wire 1 / ww_devclrn $end
$var wire 1 0 ww_devpor $end
$var wire 1 1 ww_enable $end
$var wire 1 2 ww_inputs [1] $end
$var wire 1 3 ww_inputs [0] $end
$var wire 1 4 ww_outputs [3] $end
$var wire 1 5 ww_outputs [2] $end
$var wire 1 6 ww_outputs [1] $end
$var wire 1 7 ww_outputs [0] $end
$var wire 1 8 \outputs[0]~output_o\ $end
$var wire 1 9 \outputs[1]~output_o\ $end
$var wire 1 : \outputs[2]~output_o\ $end
$var wire 1 ; \outputs[3]~output_o\ $end
$var wire 1 < \enable~input_o\ $end
$var wire 1 = \inputs[1]~input_o\ $end
$var wire 1 > \inputs[0]~input_o\ $end
$var wire 1 ? \outputs~0_combout\ $end
$var wire 1 @ \outputs~1_combout\ $end
$var wire 1 A \outputs~2_combout\ $end
$var wire 1 B \outputs~3_combout\ $end
$upscope $end
$upscope $end
$enddefinitions $end
#0
$dumpvars
0!
0(
1)
x*
1+
1,
1-
1.
1/
10
01
08
09
0:
0;
0<
1=
0>
0?
0@
0A
0B
1"
0#
0$
0%
0&
0'
12
03
04
05
06
07
$end
#10000
1!
11
1<
1A
1:
15
1%
#20000
0!
01
0<
0A
0:
05
0%
#30000
1!
11
1<
1A
1:
15
1%
#40000
0!
1#
01
13
1>
0<
0A
0:
05
0%
#50000
1!
11
1<
1B
1;
14
1$
#60000
0!
01
0<
0B
0;
04
0$
#70000
1!
11
1<
1B
1;
14
1$
#80000
0!
0#
01
03
0>
0<
0B
0;
04
0$
#90000
1!
11
1<
1A
1:
15
1%
#100000
0!
01
0<
0A
0:
05
0%
#110000
1!
11
1<
1A
1:
15
1%
#120000
0!
1#
0"
01
13
02
0=
1>
0<
0A
0:
05
0%
#130000
1!
11
1<
1@
19
16
1&
#140000
0!
01
0<
0@
09
06
0&
#150000
1!
11
1<
1@
19
16
1&
#160000
0!
0#
01
03
0>
0<
0@
09
06
0&
#170000
1!
11
1<
1?
18
17
1'
#180000
0!
01
0<
0?
08
07
0'
#190000
1!
11
1<
1?
18
17
1'
#200000
0!
1#
1"
01
13
12
1=
1>
0<
0?
08
07
0'
#210000
1!
11
1<
1B
1;
14
1$
#220000
0!
01
0<
0B
0;
04
0$
#230000
1!
11
1<
1B
1;
14
1$
#240000
0!
01
0<
0B
0;
04
0$
#250000
1!
11
1<
1B
1;
14
1$
#260000
0!
01
0<
0B
0;
04
0$
#270000
1!
11
1<
1B
1;
14
1$
#280000
0!
0#
01
03
0>
0<
0B
0;
04
0$
#290000
1!
11
1<
1A
1:
15
1%
#300000
0!
01
0<
0A
0:
05
0%
#310000
1!
11
1<
1A
1:
15
1%
#320000
0!
01
0<
0A
0:
05
0%
#330000
1!
11
1<
1A
1:
15
1%
#340000
0!
01
0<
0A
0:
05
0%
#350000
1!
11
1<
1A
1:
15
1%
#360000
0!
1#
01
13
1>
0<
0A
0:
05
0%
#370000
1!
11
1<
1B
1;
14
1$
#380000
0!
01
0<
0B
0;
04
0$
#390000
1!
11
1<
1B
1;
14
1$
#400000
0!
0"
01
02
0=
0<
0B
0;
04
0$
#410000
1!
11
1<
1@
19
16
1&
#420000
0!
01
0<
0@
09
06
0&
#430000
1!
11
1<
1@
19
16
1&
#440000
0!
0#
01
03
0>
0<
0@
09
06
0&
#450000
1!
11
1<
1?
18
17
1'
#460000
0!
01
0<
0?
08
07
0'
#470000
1!
11
1<
1?
18
17
1'
#480000
0!
1#
01
13
1>
0<
0?
08
07
0'
#490000
1!
11
1<
1@
19
16
1&
#500000
0!
01
0<
0@
09
06
0&
#510000
1!
11
1<
1@
19
16
1&
#520000
0!
0#
01
03
0>
0<
0@
09
06
0&
#530000
1!
11
1<
1?
18
17
1'
#540000
0!
01
0<
0?
08
07
0'
#550000
1!
11
1<
1?
18
17
1'
#560000
0!
1#
01
13
1>
0<
0?
08
07
0'
#570000
1!
11
1<
1@
19
16
1&
#580000
0!
01
0<
0@
09
06
0&
#590000
1!
11
1<
1@
19
16
1&
#600000
0!
1"
01
12
1=
0<
0@
09
06
0&
#610000
1!
11
1<
1B
1;
14
1$
#620000
0!
01
0<
0B
0;
04
0$
#630000
1!
11
1<
1B
1;
14
1$
#640000
0!
0"
0#
01
03
02
0=
0>
0<
0B
0;
04
0$
#650000
1!
11
1<
1?
18
17
1'
#660000
0!
01
0<
0?
08
07
0'
#670000
1!
11
1<
1?
18
17
1'
#680000
0!
01
0<
0?
08
07
0'
#690000
1!
11
1<
1?
18
17
1'
#700000
0!
01
0<
0?
08
07
0'
#710000
1!
11
1<
1?
18
17
1'
#720000
0!
1#
01
13
1>
0<
0?
08
07
0'
#730000
1!
11
1<
1@
19
16
1&
#740000
0!
01
0<
0@
09
06
0&
#750000
1!
11
1<
1@
19
16
1&
#760000
0!
0#
01
03
0>
0<
0@
09
06
0&
#770000
1!
11
1<
1?
18
17
1'
#780000
0!
01
0<
0?
08
07
0'
#790000
1!
11
1<
1?
18
17
1'
#800000
0!
1#
01
13
1>
0<
0?
08
07
0'
#810000
1!
11
1<
1@
19
16
1&
#820000
0!
01
0<
0@
09
06
0&
#830000
1!
11
1<
1@
19
16
1&
#840000
0!
0#
1"
01
03
12
1=
0>
0<
0@
09
06
0&
#850000
1!
11
1<
1A
1:
15
1%
#860000
0!
01
0<
0A
0:
05
0%
#870000
1!
11
1<
1A
1:
15
1%
#880000
0!
1#
01
13
1>
0<
0A
0:
05
0%
#890000
1!
11
1<
1B
1;
14
1$
#900000
0!
01
0<
0B
0;
04
0$
#910000
1!
11
1<
1B
1;
14
1$
#920000
0!
0#
01
03
0>
0<
0B
0;
04
0$
#930000
1!
11
1<
1A
1:
15
1%
#940000
0!
01
0<
0A
0:
05
0%
#950000
1!
11
1<
1A
1:
15
1%
#960000
0!
0"
01
02
0=
0<
0A
0:
05
0%
#970000
1!
11
1<
1?
18
17
1'
#980000
0!
01
0<
0?
08
07
0'
#990000
1!
11
1<
1?
18
17
1'
