1ano/1semestre/IntroSistemasDigitais/Quartus/EqCmpDemo_P/simulation/qsim/EqCmpDemo.msim.vcd
$comment
	File created using the following command:
		vcd file EqCmpDemo.msim.vcd -direction
$end
$date
	Thu Nov 03 09:27:23 2022
$end
$version
	ModelSim Version 2020.1
$end
$timescale
	1ps
$end

$scope module EqCmpDemo_vlg_vec_tst $end
$var reg 4 ! inport0 [3:0] $end
$var reg 4 " inport1 [3:0] $end
$var wire 1 # cmpPort $end

$scope module i1 $end
$var wire 1 $ gnd $end
$var wire 1 % vcc $end
$var wire 1 & unknown $end
$var tri1 1 ' devclrn $end
$var tri1 1 ( devpor $end
$var tri1 1 ) devoe $end
$var wire 1 * cmpPort~output_o $end
$var wire 1 + inport0[3]~input_o $end
$var wire 1 , inport0[2]~input_o $end
$var wire 1 - inport1[2]~input_o $end
$var wire 1 . inport1[3]~input_o $end
$var wire 1 / inst|inst4~0_combout $end
$var wire 1 0 inport0[1]~input_o $end
$var wire 1 1 inport0[0]~input_o $end
$var wire 1 2 inport1[0]~input_o $end
$var wire 1 3 inport1[1]~input_o $end
$var wire 1 4 inst|inst4~1_combout $end
$var wire 1 5 inst|inst4~combout $end
$upscope $end
$upscope $end
$enddefinitions $end
#0
$dumpvars
b0 !
b0 "
1#
0$
1%
x&
1'
1(
1)
1*
0+
0,
0-
0.
1/
00
01
02
03
14
15
$end
#25000
b1000 "
b1100 "
b1110 "
b1111 "
12
13
1-
1.
04
0/
05
0*
0#
#50000
b1000 !
b1100 !
b1110 !
b1111 !
b111 "
b11 "
b1 "
b0 "
02
03
0-
0.
11
10
1,
1+
#75000
b1000 "
b1100 "
b1110 "
b1111 "
12
13
1-
1.
14
1/
15
1*
1#
#100000
b111 !
b11 !
b1 !
b0 !
b111 "
b11 "
b1 "
b0 "
02
03
0-
0.
01
00
0,
0+
#125000
b1000 "
b1100 "
b1110 "
b1111 "
12
13
1-
1.
04
0/
05
0*
0#
#150000
b1000 !
b1100 !
b1110 !
b1111 !
b111 "
b11 "
b1 "
b0 "
02
03
0-
0.
11
10
1,
1+
#175000
b1000 "
b1100 "
b1110 "
b1111 "
12
13
1-
1.
14
1/
15
1*
1#
#200000
b111 !
b11 !
b1 !
b0 !
b111 "
b11 "
b1 "
b0 "
02
03
0-
0.
01
00
0,
0+
#225000
b1000 "
b1100 "
b1110 "
b1111 "
12
13
1-
1.
04
0/
05
0*
0#
#250000
b1000 !
b1100 !
b1110 !
b1111 !
b111 "
b11 "
b1 "
b0 "
02
03
0-
0.
11
10
1,
1+
#275000
b1000 "
b1100 "
b1110 "
b1111 "
12
13
1-
1.
14
1/
15
1*
1#
#300000
b111 !
b11 !
b1 !
b0 !
b111 "
b11 "
b1 "
b0 "
02
03
0-
0.
01
00
0,
0+
#325000
b1000 "
b1100 "
b1110 "
b1111 "
12
13
1-
1.
04
0/
05
0*
0#
#350000
b1000 !
b1100 !
b1110 !
b1111 !
b111 "
b11 "
b1 "
b0 "
02
03
0-
0.
11
10
1,
1+
#375000
b1000 "
b1100 "
b1110 "
b1111 "
12
13
1-
1.
14
1/
15
1*
1#
#400000
b111 !
b11 !
b1 !
b0 !
b111 "
b11 "
b1 "
b0 "
02
03
0-
0.
01
00
0,
0+
#425000
b1000 "
b1100 "
b1110 "
b1111 "
12
13
1-
1.
04
0/
05
0*
0#
#450000
b1000 !
b1100 !
b1110 !
b1111 !
b111 "
b11 "
b1 "
b0 "
02
03
0-
0.
11
10
1,
1+
#475000
b1000 "
b1100 "
b1110 "
b1111 "
12
13
1-
1.
14
1/
15
1*
1#
#500000
b111 !
b11 !
b1 !
b0 !
b111 "
b11 "
b1 "
b0 "
02
03
0-
0.
01
00
0,
0+
#525000
b1000 "
b1100 "
b1110 "
b1111 "
12
13
1-
1.
04
0/
05
0*
0#
#550000
b1000 !
b1100 !
b1110 !
b1111 !
b111 "
b11 "
b1 "
b0 "
02
03
0-
0.
11
10
1,
1+
#575000
b1000 "
b1100 "
b1110 "
b1111 "
12
13
1-
1.
14
1/
15
1*
1#
#600000
b111 !
b11 !
b1 !
b0 !
b111 "
b11 "
b1 "
b0 "
02
03
0-
0.
01
00
0,
0+
#625000
b1000 "
b1100 "
b1110 "
b1111 "
12
13
1-
1.
04
0/
05
0*
0#
#650000
b1000 !
b1100 !
b1110 !
b1111 !
b111 "
b11 "
b1 "
b0 "
02
03
0-
0.
11
10
1,
1+
#675000
b1000 "
b1100 "
b1110 "
b1111 "
12
13
1-
1.
14
1/
15
1*
1#
#700000
b111 !
b11 !
b1 !
b0 !
b111 "
b11 "
b1 "
b0 "
02
03
0-
0.
01
00
0,
0+
#725000
b1000 "
b1100 "
b1110 "
b1111 "
12
13
1-
1.
04
0/
05
0*
0#
#750000
b1000 !
b1100 !
b1110 !
b1111 !
b111 "
b11 "
b1 "
b0 "
02
03
0-
0.
11
10
1,
1+
#775000
b1000 "
b1100 "
b1110 "
b1111 "
12
13
1-
1.
14
1/
15
1*
1#
#800000
b111 !
b11 !
b1 !
b0 !
b111 "
b11 "
b1 "
b0 "
02
03
0-
0.
01
00
0,
0+
#825000
b1000 "
b1100 "
b1110 "
b1111 "
12
13
1-
1.
04
0/
05
0*
0#
#850000
b1000 !
b1100 !
b1110 !
b1111 !
b111 "
b11 "
b1 "
b0 "
02
03
0-
0.
11
10
1,
1+
#875000
b1000 "
b1100 "
b1110 "
b1111 "
12
13
1-
1.
14
1/
15
1*
1#
#900000
b111 !
b11 !
b1 !
b0 !
b111 "
b11 "
b1 "
b0 "
02
03
0-
0.
01
00
0,
0+
#925000
b1000 "
b1100 "
b1110 "
b1111 "
12
13
1-
1.
04
0/
05
0*
0#
#950000
b1000 !
b1100 !
b1110 !
b1111 !
b111 "
b11 "
b1 "
b0 "
02
03
0-
0.
11
10
1,
1+
#975000
b1000 "
b1100 "
b1110 "
b1111 "
12
13
1-
1.
14
1/
15
1*
1#
