1ano/2semestre/Lab_SistemasDigitais/Pratica/Projetos/aula04/parte1/simulation/qsim/FlipFlopD_Demo.msim.vcd
$comment
	File created using the following command:
		vcd file FlipFlopD_Demo.msim.vcd -direction
$end
$date
	Tue Mar 21 10:14:04 2023
$end
$version
	ModelSim Version 2020.1
$end
$timescale
	1ps
$end

$scope module flipflopd_vhd_vec_tst $end
$var wire 1 ! clk $end
$var wire 1 " d $end
$var wire 1 # q $end

$scope module i1 $end
$var wire 1 $ gnd $end
$var wire 1 % vcc $end
$var wire 1 & unknown $end
$var wire 1 ' devoe $end
$var wire 1 ( devclrn $end
$var wire 1 ) devpor $end
$var wire 1 * ww_devoe $end
$var wire 1 + ww_devclrn $end
$var wire 1 , ww_devpor $end
$var wire 1 - ww_clk $end
$var wire 1 . ww_d $end
$var wire 1 / ww_q $end
$var wire 1 0 \q~output_o\ $end
$var wire 1 1 \clk~input_o\ $end
$var wire 1 2 \d~input_o\ $end
$var wire 1 3 \q~reg0_q\ $end
$upscope $end
$upscope $end
$enddefinitions $end
#0
$dumpvars
0!
0"
0#
0$
1%
x&
1'
1(
1)
1*
1+
1,
0-
0.
0/
00
01
02
03
$end
#11400
1!
1-
11
#20000
1"
1.
12
#40000
0"
0.
02
#60000
0!
0-
01
#71400
1!
1-
11
#80000
1"
1.
12
#100000
0"
0.
02
#120000
1"
0!
1.
0-
01
12
#131400
1!
1-
11
13
10
1/
1#
#140000
0"
0.
02
#180000
1"
0!
1.
0-
01
12
#191400
1!
1-
11
#200000
0"
0.
02
#240000
0!
0-
01
#251400
1!
1-
11
03
00
0/
0#
#260000
1"
1.
12
#300000
0!
0-
01
#311400
1!
1-
11
13
10
1/
1#
#320000
0"
0.
02
#340000
1"
1.
12
#360000
0"
0!
0.
0-
01
02
#371400
1!
1-
11
03
00
0/
0#
#380000
1"
1.
12
#400000
0"
0.
02
#420000
1"
0!
1.
0-
01
12
#431400
1!
1-
11
13
10
1/
1#
#460000
0"
0.
02
#480000
1"
0!
1.
0-
01
12
#491400
1!
1-
11
#540000
0!
0-
01
#551400
1!
1-
11
#580000
0"
0.
02
#600000
0!
0-
01
#611400
1!
1-
11
03
00
0/
0#
#620000
1"
1.
12
#660000
0!
0-
01
#671400
1!
1-
11
13
10
1/
1#
#700000
0"
0.
02
#720000
0!
0-
01
#731400
1!
1-
11
03
00
0/
0#
#740000
1"
1.
12
#780000
0"
0!
0.
0-
01
02
#791400
1!
1-
11
#800000
1"
1.
12
#820000
0"
0.
02
#840000
1"
0!
1.
0-
01
12
#851400
1!
1-
11
13
10
1/
1#
#860000
0"
0.
02
#880000
1"
1.
12
#900000
0!
0-
01
#911400
1!
1-
11
#920000
0"
0.
02
#940000
1"
1.
12
#960000
0"
0!
0.
0-
01
02
#971400
1!
1-
11
03
00
0/
0#
#980000
1"
1.
12
